Getting to Know infer
…
hypothesize() allows you to declare the null hypothesis.

generate() allows you to generate data reflecting the null hypothesis.

calculate() allows you to calculate a distribution of statistics from the generated data to form the null distribution.

specify()

The specify function can be used to specify which of the variable(s) in the dataset you’re interested in. If you’re only interested in, say, the age of the respondents, you might write:

gss %>%
  specify(response = age)

## Response: age (numeric)
## # A tibble: 2,988 x 1
##      age
##    <dbl>
##  1    37
##  2    29
##  3    58
##  4    40
##  5    39
##  6    37
##  7    53
##  8    41
##  9    55
## 10    47
## # … with 2,978 more rows
…
